{
	"controller": 
	{
		"type" : "maneuver",
		"hard_roll_constraint" : 85.0,
		"hard_pitch_constraint" : 45.0,
		"pids":
		{
			"climb_angle": {
				"ff": 0,
				"imax": 10,
				"kd": 0,
				"ki": 0,
				"kp": 1
			},
			"pitch": {
				"ff": 0,
				"imax": 5,
				"kd": 0,
				"ki": 0,
				"kp": 1
			},
			"roll": {
				"ff": 0,
				"imax": 5,
				"kd": 0,
				"ki": 0,
				"kp": 1
			},
			"velocity": {
				"ff": 0,
				"imax": 10,
				"kd": 0,
				"ki": 0,
				"kp": 1
			},
			"yaw_rate": {
				"ff": 1,
				"imax": 0,
				"kd": 0,
				"ki": 0,
				"kp": 0
			},
			"rudder": {
				"ff": 0,
				"imax": 1,
				"kd": 0,
				"ki": 0,
				"kp": 1
			}
		}		
	},
	"local_planner":
	{
		"type":"linear",
		"k_altitude":0.2,
		"k_heading":0.002,
		"k_yaw_rate":1.0	
	}
}
